…
folgen_replies_unnest %>%
  group_by(word,value) %>%
  count() %>%
  arrange(desc(value))
## # A tibble: 743 x 3
## # Groups:   word, value [743]
##    word              value     n
##    <chr>             <dbl> <int>
##  1 gelungen          1         6
##  2 perfekt           0.730     6
##  3 lob               0.725     8
##  4 wunderbar         0.723     8
##  5 spannend          0.716    60
##  6 freude            0.650    11
##  7 mut               0.609     1
##  8 freundlich        0.602     1
##  9 hervorragend      0.589    11
## 10 abwechslungsreich 0.580     1
## # ... with 733 more rows
…
