…
library(tidytext)
## Warning: Paket 'tidytext' wurde unter R Version 3.6.1 erstellt
folgen_replies_unnest <- folgen_replies %>%
  unnest_tokens(word,comment)

stopwords <- tidytext::get_stopwords("de")

folgen_replies_unnest <- folgen_replies_unnest %>%
  anti_join(stopwords, by = "word")

folgen_replies_unnest %>%
  count(word,sort = TRUE) 
## # A tibble: 13,249 x 2
##    word            n
##    <chr>       <int>
##  1 kommentiere  1522
##  2 dass          947
##  3 folge         797
##  4 podcast       744
##  5 mal           679
##  6 schon         659
##  7 tim           608
##  8 ja            592
##  9 sagte         517
## 10 raumzeit      473
## # ... with 13,239 more rows
…
